…
## Numbers

## Rural Oahu

### Debt collection

    ## Location: Rural Oahu, Legal query: debt_collection
    ## [1] "Top 3 URL domains"
    ## # A tibble: 103 x 2
    ##    full_url                        n
    ##    <chr>                       <int>
    ##  1 nolo.com                       49
    ##  2 nerdwallet.com                 37
    ##  3 consumerhelpcentral.com        33
    ##  4 wusa9.com                      29
    ##  5 credit.com                     28
    ##  6 consumerrecoverynetwork.com    25
    ##  7 natlbankruptcy.com             24
    ##  8 incharge.org                   18
    ##  9 thebalance.com                 17
    ## 10 creditcards.com                14
    ## # … with 93 more rows
    ## [1] "First page top URL domains"
    ## # A tibble: 194 x 2
    ##    full_url                        n
    ##    <chr>                       <int>
    ##  1 nolo.com                       86
    ##  2 creditcards.com                70
    ##  3 nerdwallet.com                 63
    ##  4 usnews.com                     51
    ##  5 incharge.org                   42
    ##  6 credit.com                     38
    ##  7 natlbankruptcy.com             38
    ##  8 consumerhelpcentral.com        36
    ##  9 wusa9.com                      31
    ## 10 consumerrecoverynetwork.com    27
    ## # … with 184 more rows
    ## [1] "Most common suffixes"
…
    ##  1 com          816
    ##  2 org          129
    ##  3 gov           30
    ##  4 net            6
    ##  5 co             3
    ##  6 ai             1
    ##  7 ca             1
    ##  8 edu            1
    ##  9 gov.sg         1
    ## 10 vic.gov.au     1
    ## [1] "Percentage of ads"
    ## [1] 16.8008
    ## [1] "Most common ad domain"

    ## # A tibble: 65 x 2
    ##    urldomain              n
    ##    <chr>              <int>
    ##  1 justanswer            18
    ##  2 nationaldebtrelief    16
    ##  3 legalmatch            11
    ##  4 gregdunnhi             9
    ##  5 topconsumerreviews     7
    ##  6 uprightlaw             7
    ##  7 creditassoc            6
    ##  8 bankruptcyrelief       4
    ##  9 chase                  4
    ## 10 incharge               4
    ## # … with 55 more rows

### Domestic violence

    ## Location: Rural Oahu, Legal query: domestic_violence
    ## [1] "Top 3 URL domains"
    ## # A tibble: 153 x 2
    ##    full_url                n
    ##    <chr>               <int>
    ##  1 theguardian.com        10
    ##  2 ncadv.org               9
    ##  3 psychologytoday.com     9
    ##  4 womenshealth.gov        9
    ##  5 findlaw.com             7
    ##  6 loveisrespect.org       7
    ##  7 verywellmind.com        7
    ##  8 acestreatment.org       5
    ##  9 joinonelove.org         4
    ## 10 masslegalhelp.org       4
    ## # … with 143 more rows
    ## [1] "First page top URL domains"
    ## # A tibble: 214 x 2
    ##    full_url                n
    ##    <chr>               <int>
    ##  1 thehotline.org         32
    ##  2 helpguide.org          17
    ##  3 psychologytoday.com    16
    ##  4 joinonelove.org        15
    ##  5 quora.com              12
    ##  6 theguardian.com        12
    ##  7 ncadv.org              11
    ##  8 loveisrespect.org      10
    ##  9 verywellmind.com       10
    ## 10 womenshealth.gov       10
    ## # … with 204 more rows
    ## [1] "Most common suffixes"
…
    ##  7 net            2
    ##  8 org.uk         2
    ##  9 blog           1
    ## 10 life           1
    ## 11 mn.us          1
    ## 12 nhs.uk         1
    ## 13 org.au         1
    ## 14 org.nz         1
    ## 15 police.uk      1
    ## 16 qld.gov.au     1
    ## [1] "Percentage of ads"
    ## [1] 10.70664
    ## [1] "Most common ad domain"

    ## # A tibble: 22 x 2
    ##    urldomain                  n
    ##    <chr>                  <int>
    ##  1 joinonelove                9
    ##  2 liveyourdream              8
    ##  3 new-hope                   4
    ##  4 wadvocates                 4
    ##  5 activebeat                 3
    ##  6 futureswithoutviolence     3
    ##  7 awesomejelly               2
    ##  8 healthprep                 2
    ##  9 patientsrising             2
    ## 10 airbnb                     1
    ## # … with 12 more rows

### Flood contractor

    ## Location: Rural Oahu, Legal query: flood_contractor
    ## [1] "Top 3 URL domains"
    ## # A tibble: 155 x 2
    ##    full_url               n
    ##    <chr>              <int>
    ##  1 houselogic.com        25
    ##  2 lendinghome.com       20
    ##  3 nolo.com              19
    ##  4 angieslist.com        18
    ##  5 homes.com             16
    ##  6 usnews.com            16
    ##  7 washingtonpost.com    16
    ##  8 hg.org                14
    ##  9 cnbc.com              12
    ## 10 bbb.org                9
    ## # … with 145 more rows
    ## [1] "First page top URL domains"
    ## # A tibble: 212 x 2
    ##    full_url               n
    ##    <chr>              <int>
    ##  1 angieslist.com        66
    ##  2 nolo.com              52
    ##  3 houselogic.com        35
    ##  4 homes.com             32
    ##  5 legalmatch.com        30
    ##  6 lendinghome.com       28
    ##  7 avvo.com              24
    ##  8 hg.org                24
    ##  9 usnews.com            20
    ## 10 washingtonpost.com    20
    ## # … with 202 more rows
    ## [1] "Most common suffixes"
…
    ##   <chr>     <int>
    ## 1 com         703
    ## 2 org          77
    ## 3 gov          35
    ## 4 net           3
    ## 5 ca            2
    ## 6 com.au        1
    ## 7 edu           1
    ## 8 mil           1
    ## 9 nm.us         1
    ## [1] "Percentage of ads"
    ## [1] 10.55341
    ## [1] "Most common ad domain"

    ## # A tibble: 27 x 2
    ##    urldomain                    n
    ##    <chr>                    <int>
    ##  1 justanswer                  11
    ##  2 legalhawaii                 10
    ##  3 kllawhawaii                  8
    ##  4 homeadvisor                  7
    ##  5 legalmatch                   6
    ##  6 rainbowroof                  6
    ##  7 protechroofinghonoluluhi     5
    ##  8 legalshield                  3
    ##  9 allstarroofing808            2
    ## 10 gaf                          2
    ## # … with 17 more rows

### Eviction

    ## Location: Rural Oahu, Legal query: eviction
    ## [1] "Top 3 URL domains"
    ## # A tibble: 117 x 2
    ##    full_url              n
    ##    <chr>             <int>
    ##  1 sfgate.com           28
    ##  2 findlaw.com          23
    ##  3 nolo.com             16
    ##  4 avail.co             14
    ##  5 thebalancesmb.com    14
    ##  6 usnews.com           14
    ##  7 rentprep.com         12
    ##  8 freeadvice.com       11
    ##  9 hud.gov              11
    ## 10 caltenantlaw.com     10
    ## # … with 107 more rows
    ## [1] "First page top URL domains"
    ## # A tibble: 155 x 2
    ##    full_url                                      n
    ##    <chr>                                     <int>
    ##  1 nolo.com                                    103
    ##  2 findlaw.com                                  45
    ##  3 sfgate.com                                   37
    ##  4 ca.gov                                       32
    ##  5 thebalancesmb.com                            24
    ##  6 avail.co                                     17
    ##  7 usnews.com                                   15
    ##  8 american-apartment-owners-association.org    14
    ##  9 hud.gov                                      14
    ## 10 landlordology.com                            14
    ## # … with 145 more rows
    ## [1] "Most common suffixes"
…
## Honolulu

### Debt collection

    ## Location: Honolulu, Legal query: debt_collection
    ## [1] "Top 3 URL domains"
    ## # A tibble: 100 x 2
    ##    full_url                        n
    ##    <chr>                       <int>
    ##  1 nolo.com                       55
    ##  2 nerdwallet.com                 31
    ##  3 wusa9.com                      31
    ##  4 consumerhelpcentral.com        29
    ##  5 credit.com                     28
    ##  6 consumerrecoverynetwork.com    23
    ##  7 natlbankruptcy.com             23
    ##  8 incharge.org                   18
    ##  9 creditcards.com                12
    ## 10 thebalance.com                 10
    ## # … with 90 more rows
    ## [1] "First page top URL domains"
    ## # A tibble: 171 x 2
    ##    full_url                        n
    ##    <chr>                       <int>
    ##  1 nolo.com                       89
    ##  2 creditcards.com                66
    ##  3 nerdwallet.com                 56
    ##  4 usnews.com                     43
    ##  5 incharge.org                   40
    ##  6 natlbankruptcy.com             37
    ##  7 consumerhelpcentral.com        34
    ##  8 credit.com                     34
    ##  9 wusa9.com                      32
    ## 10 consumerrecoverynetwork.com    25
    ## # … with 161 more rows
    ## [1] "Most common suffixes"
…
    ##  1 com         710
    ##  2 org         119
    ##  3 gov          21
    ##  4 co            2
    ##  5 net           2
    ##  6 ai            1
    ##  7 ca            1
    ##  8 edu           1
    ##  9 gov.sg        1
    ## 10 info          1
    ## [1] "Percentage of ads"
    ## [1] 12.79904
    ## [1] "Most common ad domain"

    ## # A tibble: 50 x 2
    ##    urldomain              n
    ##    <chr>              <int>
    ##  1 justanswer            12
    ##  2 gregdunnhi            11
    ##  3 nationaldebtrelief    10
    ##  4 legalmatch             6
    ##  5 takechargeamerica      4
    ##  6 topconsumerreviews     4
    ##  7 bankruptcyrelief       3
    ##  8 debtbulldog            3
    ##  9 familycredit           3
    ## 10 legalshield            3
    ## # … with 40 more rows

### Domestic violence

    ## Location: Honolulu, Legal query: domestic_violence
    ## [1] "Top 3 URL domains"
    ## # A tibble: 188 x 2
    ##    full_url                n
    ##    <chr>               <int>
    ##  1 theguardian.com        14
    ##  2 ncadv.org              10
    ##  3 womenshealth.gov        9
    ##  4 loveisrespect.org       8
    ##  5 verywellmind.com        8
    ##  6 findlaw.com             7
    ##  7 psychologytoday.com     7
    ##  8 acestreatment.org       5
    ##  9 masslegalhelp.org       5
    ## 10 reddit.com              5
    ## # … with 178 more rows
    ## [1] "First page top URL domains"
    ## # A tibble: 249 x 2
    ##    full_url                n
    ##    <chr>               <int>
    ##  1 thehotline.org         38
    ##  2 helpguide.org          18
    ##  3 youtube.com            17
    ##  4 theguardian.com        16
    ##  5 quora.com              15
    ##  6 dvipiowa.org           13
    ##  7 ncadv.org              12
    ##  8 womenshealth.gov       12
    ##  9 psychologytoday.com    11
    ## 10 activebeat.com         10
    ## # … with 239 more rows
    ## [1] "Most common suffixes"
…
### Flood contractor

    ## Location: Honolulu, Legal query: flood_contractor
    ## [1] "Top 3 URL domains"
    ## # A tibble: 162 x 2
    ##    full_url               n
    ##    <chr>              <int>
    ##  1 nolo.com              25
    ##  2 houselogic.com        23
    ##  3 angieslist.com        19
    ##  4 lendinghome.com       19
    ##  5 usnews.com            18
    ##  6 washingtonpost.com    16
    ##  7 homes.com             13
    ##  8 cnbc.com              11
    ##  9 hg.org                11
    ## 10 bbb.org                9
    ## # … with 152 more rows
    ## [1] "First page top URL domains"
    ## # A tibble: 218 x 2
    ##    full_url               n
    ##    <chr>              <int>
    ##  1 angieslist.com        63
    ##  2 nolo.com              51
    ##  3 houselogic.com        36
    ##  4 homes.com             30
    ##  5 legalmatch.com        30
    ##  6 lendinghome.com       27
    ##  7 avvo.com              25
    ##  8 hg.org                22
    ##  9 usnews.com            21
    ## 10 washingtonpost.com    20
    ## # … with 208 more rows
    ## [1] "Most common suffixes"
…
### Eviction

    ## Location: Honolulu, Legal query: eviction
    ## [1] "Top 3 URL domains"
    ## # A tibble: 118 x 2
    ##    full_url             n
    ##    <chr>            <int>
    ##  1 sfgate.com          24
    ##  2 findlaw.com         23
    ##  3 nolo.com            16
    ##  4 usnews.com          13
    ##  5 freeadvice.com      12
    ##  6 rentprep.com        11
    ##  7 avail.co            10
    ##  8 caltenantlaw.com    10
    ##  9 hud.gov             10
    ## 10 legalmatch.com      10
    ## # … with 108 more rows
    ## [1] "First page top URL domains"
    ## # A tibble: 155 x 2
    ##    full_url                                      n
    ##    <chr>                                     <int>
    ##  1 nolo.com                                     94
    ##  2 findlaw.com                                  41
    ##  3 ca.gov                                       31
    ##  4 sfgate.com                                   29
    ##  5 thebalancesmb.com                            19
    ##  6 american-apartment-owners-association.org    15
    ##  7 usnews.com                                   15
    ##  8 hud.gov                                      14
    ##  9 landlordology.com                            14
    ## 10 avail.co                                     12
    ## # … with 145 more rows
    ## [1] "Most common suffixes"
…
## Jacksonville

### Debt collection

    ## Location: Jacksonville, Legal query: debt_collection
    ## [1] "Top 3 URL domains"
    ## # A tibble: 106 x 2
    ##    full_url                        n
    ##    <chr>                       <int>
    ##  1 nolo.com                       51
    ##  2 nerdwallet.com                 37
    ##  3 consumerhelpcentral.com        30
    ##  4 wusa9.com                      30
    ##  5 consumerrecoverynetwork.com    28
    ##  6 credit.com                     26
    ##  7 natlbankruptcy.com             25
    ##  8 incharge.org                   17
    ##  9 thebalance.com                 16
    ## 10 wallethub.com                  15
    ## # … with 96 more rows
    ## [1] "First page top URL domains"
    ## # A tibble: 190 x 2
    ##    full_url                        n
    ##    <chr>                       <int>
    ##  1 nolo.com                       83
    ##  2 creditcards.com                69
    ##  3 nerdwallet.com                 61
    ##  4 usnews.com                     51
    ##  5 incharge.org                   43
    ##  6 credit.com                     37
    ##  7 natlbankruptcy.com             37
    ##  8 consumerhelpcentral.com        34
    ##  9 wusa9.com                      31
    ## 10 consumerrecoverynetwork.com    30
    ## # … with 180 more rows
    ## [1] "Most common suffixes"
…
    ##  3 gov          28
    ##  4 co            2
    ##  5 ai            1
    ##  6 ca            1
    ##  7 edu           1
    ##  8 gov.sg        1
    ##  9 info          1
    ## 10 legal         1
    ## 11 pro           1
    ## 12 site          1
    ## [1] "Percentage of ads"
    ## [1] 14.72709
    ## [1] "Most common ad domain"

    ## # A tibble: 57 x 2
    ##    urldomain                  n
    ##    <chr>                  <int>
    ##  1 the-debt-experts          17
    ##  2 nationaldebtrelief        14
    ##  3 justanswer                 9
    ##  4 legalmatch                 8
    ##  5 top10debtconsolidation     7
    ##  6 topconsumerreviews         7
    ##  7 muradolawpa                6
    ##  8 jaxlawcenter               5
    ##  9 incharge                   4
    ## 10 chase                      3
    ## # … with 47 more rows

### Domestic violence

    ## Location: Jacksonville, Legal query: domestic_violence
    ## [1] "Top 3 URL domains"
    ## # A tibble: 182 x 2
    ##    full_url                n
    ##    <chr>               <int>
    ##  1 womenshealth.gov        9
    ##  2 ncadv.org               8
    ##  3 psychologytoday.com     8
    ##  4 theguardian.com         7
    ##  5 findlaw.com             6
    ##  6 helpguide.org           6
    ##  7 loveisrespect.org       6
    ##  8 reddit.com              6
    ##  9 verywellmind.com        6
    ## 10 huffpost.com            5
    ## # … with 172 more rows
    ## [1] "First page top URL domains"
    ## # A tibble: 244 x 2
    ##    full_url                n
    ##    <chr>               <int>
    ##  1 thehotline.org         31
    ##  2 helpguide.org          20
    ##  3 quora.com              14
    ##  4 psychologytoday.com    13
    ##  5 youtube.com            12
    ##  6 dvipiowa.org           11
    ##  7 reddit.com             11
    ##  8 womenshealth.gov       11
    ##  9 verywellmind.com       10
    ## 10 activebeat.com          9
    ## # … with 234 more rows
    ## [1] "Most common suffixes"
…
### Flood contractor

    ## Location: Jacksonville, Legal query: flood_contractor
    ## [1] "Top 3 URL domains"
    ## # A tibble: 165 x 2
    ##    full_url               n
    ##    <chr>              <int>
    ##  1 nolo.com              22
    ##  2 houselogic.com        20
    ##  3 lendinghome.com       17
    ##  4 usnews.com            17
    ##  5 angieslist.com        16
    ##  6 homes.com             14
    ##  7 washingtonpost.com    13
    ##  8 cnbc.com              12
    ##  9 hg.org                12
    ## 10 bbb.org                9
    ## # … with 155 more rows
    ## [1] "First page top URL domains"
    ## # A tibble: 237 x 2
    ##    full_url               n
    ##    <chr>              <int>
    ##  1 angieslist.com        60
    ##  2 nolo.com              51
    ##  3 houselogic.com        33
    ##  4 homes.com             30
    ##  5 legalmatch.com        27
    ##  6 avvo.com              25
    ##  7 lendinghome.com       25
    ##  8 hg.org                20
    ##  9 usnews.com            20
    ## 10 washingtonpost.com    19
    ## # … with 227 more rows
    ## [1] "Most common suffixes"
…
    ##   urlsuffix     n
    ##   <chr>     <int>
    ## 1 com         714
    ## 2 org          88
    ## 3 gov          33
    ## 4 net           4
    ## 5 ca            1
    ## 6 com.au        1
    ## 7 mil           1
    ## 8 us            1
    ## [1] "Percentage of ads"
    ## [1] 7.568238
    ## [1] "Most common ad domain"

    ## # A tibble: 27 x 2
    ##    urldomain             n
    ##    <chr>             <int>
    ##  1 justanswer           10
    ##  2 homeadvisor           8
    ##  3 tadlock-roofing       5
    ##  4 throofing             5
    ##  5 eboz                  4
    ##  6 legalshield           3
    ##  7 stormforce            3
    ##  8 attorneyinfoguide     2
    ##  9 legalsupporttoday     2
    ## 10 spcroofers            2
    ## # … with 17 more rows

### Eviction

    ## Location: Jacksonville, Legal query: eviction
    ## [1] "Top 3 URL domains"
    ## # A tibble: 104 x 2
    ##    full_url              n
    ##    <chr>             <int>
    ##  1 sfgate.com           21
    ##  2 findlaw.com          15
    ##  3 nolo.com             14
    ##  4 ca.gov                9
    ##  5 caltenantlaw.com      9
    ##  6 hud.gov               8
    ##  7 thebalancesmb.com     8
    ##  8 freeadvice.com        7
    ##  9 usnews.com            7
    ## 10 legalmatch.com        6
    ## # … with 94 more rows
    ## [1] "First page top URL domains"
…
